\relax 
\citation{koopman}
\citation{henzinger}
\@writefile{toc}{\contentsline {section}{\numberline {I}Introduction}{1}}
\@writefile{toc}{\contentsline {section}{\numberline {II}Research in Embedded Systems}{1}}
\@writefile{toc}{\contentsline {subsection}{\numberline {\unhbox \voidb@x \hbox {II-A}}Embedded Systems Security}{1}}
\@writefile{toc}{\contentsline {subsection}{\numberline {\unhbox \voidb@x \hbox {II-B}}The Embedded Systems Design Challenge}{1}}
\citation{pande}
\citation{hafsa}
\citation{Ganesan}
\citation{gotzfried}
\@writefile{toc}{\contentsline {section}{\numberline {III}Encryption Schemes}{2}}
\@writefile{toc}{\contentsline {subsection}{\numberline {\unhbox \voidb@x \hbox {III-A}}Design and Hardware Implementation of a Chaotic Encryption Scheme for Real-time Embedded Systems}{2}}
\@writefile{toc}{\contentsline {subsection}{\numberline {\unhbox \voidb@x \hbox {III-B}}A hardware-software co-designed AES-ECC cryptosystem}{2}}
\@writefile{toc}{\contentsline {subsection}{\numberline {\unhbox \voidb@x \hbox {III-C}}Analyzing and Modeling Encryption Overhead for Sensor Network Nodes}{2}}
\@writefile{toc}{\contentsline {section}{\numberline {IV}Security Techniques}{2}}
\@writefile{toc}{\contentsline {subsection}{\numberline {\unhbox \voidb@x \hbox {IV-A}}Physically Secure Code and Data Storage in Autonomously Booting Systems}{2}}
\citation{hong}
\citation{santra}
\citation{maene}
\@writefile{toc}{\contentsline {subsection}{\numberline {\unhbox \voidb@x \hbox {IV-B}}Dynamic Encryption Key Design and Management for Memory Data Encryption In Embedded Systems}{3}}
\@writefile{toc}{\contentsline {subsection}{\numberline {\unhbox \voidb@x \hbox {IV-C}}Design and Analysis of a Modified Remote Attestation Protocol}{3}}
\@writefile{toc}{\contentsline {subsection}{\numberline {\unhbox \voidb@x \hbox {IV-D}}Hardware-Based Trusted Computing Architectures for Isolation and Attestation}{3}}
\citation{Carpent}
\citation{maene}
\citation{Carpent}
\citation{henzinger}
\citation{santra}
\citation{maene}
\citation{Carpent}
\citation{maene}
\citation{santra}
\citation{Ganesan}
\citation{pande}
\citation{hafsa}
\citation{gotzfried}
\citation{hong}
\citation{santra}
\@writefile{toc}{\contentsline {subsection}{\numberline {\unhbox \voidb@x \hbox {IV-E}}Lightweight Swarm Attestation: a Tale of Two LISA-s}{4}}
\@writefile{toc}{\contentsline {section}{\numberline {V}Analysis}{4}}
\@writefile{toc}{\contentsline {subsection}{\numberline {\unhbox \voidb@x \hbox {V-A}}Embedded Systems Conundrum}{4}}
\@writefile{toc}{\contentsline {subsection}{\numberline {\unhbox \voidb@x \hbox {V-B}}Remote Attestation}{4}}
\@writefile{toc}{\contentsline {subsection}{\numberline {\unhbox \voidb@x \hbox {V-C}}Cryptography Development}{4}}
\citation{pande}
\citation{hong}
\citation{Ganesan}
\citation{henzinger}
\bibstyle{plain}
\bibdata{biblio}
\bibcite{Carpent}{1}
\bibcite{Ganesan}{2}
\bibcite{gotzfried}{3}
\bibcite{hafsa}{4}
\bibcite{henzinger}{5}
\bibcite{hong}{6}
\bibcite{koopman}{7}
\bibcite{maene}{8}
\bibcite{pande}{9}
\bibcite{santra}{10}
\@writefile{toc}{\contentsline {subsection}{\numberline {\unhbox \voidb@x \hbox {V-D}}Attack Vectors}{5}}
\@writefile{toc}{\contentsline {section}{\numberline {VI}Conclusion}{5}}
\@writefile{toc}{\contentsline {section}{\numberline {VII}General Concerns}{5}}
\@writefile{toc}{\contentsline {section}{References}{5}}
