\relax 
\citation{test}
\bibstyle{plain}
\bibdata{top}
\bibcite{test}{1}
\@writefile{toc}{\contentsline {section}{\numberline {I}Introduction}{1}}
\@writefile{toc}{\contentsline {section}{\numberline {II}Analysis}{1}}
\@writefile{toc}{\contentsline {subsection}{\numberline {\unhbox \voidb@x \hbox {II-A}}Analysis Framework}{1}}
\@writefile{toc}{\contentsline {section}{\numberline {III}Conclusion}{1}}
\@writefile{toc}{\contentsline {section}{References}{1}}
